{
  "name": "DemoEnginev1.8",
  "useQueryCache": true,
  "enableConfigService": false,
  "enableDataService": true,
  "enableQueryService": true,
  "enableDataModelService": true,
  "requireSecurityRole": false,
  "exportingToCSV": {
    "quote": "\"",
    "encoding": "UTF-8",
    "addHeader": true,
    "delimiter": ",",
    "preventInjectionRegex": "^[=+-@'\"]",
    "nullValue": "(null)"
  },
  "scopes": [
    {
      "name": "Northwind Marketing",
      "dataModels": [
        {
          "name": "Sales",
          "priority": 1,
          "render": {
            "className": "io.peekdata.datagateway.render.postgresql.PostgreSQLRender",
            "path": "/northwind",
            "licenseKey": "lic-ex-postgresqlv01-22453135"
          },
          "executor": {
            "className": "io.peekdata.datagateway.executor.postgresql",
            "connections": [
              {
                "driver": "org.postgresql.Driver",
                "url": "jdbc:postgresql://database:5432/northwind",
                "userName": "postgres",
                "password": "docker",
                "minPoolSize": 4,
                "maxPoolSize": 6,
                "keepAliveInMinutes": 5,
                "keepAliveStatement": "SELECT 1 as ConnectionTEST",
				        "queryExecuteTimeoutSeconds": 600
              }
            ]
          }
        }
      ]
    }
  ]
}