{
  "cubes": [
    {
      "name": "product",
      "title": "Product",
      "mapping": null,
      "group": [
        "Product"
      ],
      "attributes": [
        {
          "name": "name",
          "value": "products"
        },
        {
          "name": "alias",
          "value": "pr"
        },
        {
          "name": "schema",
          "value": "public"
        }
      ],
      "dimensions": [
        {
          "name": "productid",
          "mapping": {
            "expression": "productid",
            "type": "column",
            "dataType": "int2"
          },
          "attributes": [
            {
              "name": "isPrivate",
              "value": "true"
            }
          ]
        },
        {
          "name": "supplierid",
          "mapping": {
            "expression": "supplierid",
            "type": "column",
            "dataType": "int2"
          },
          "attributes": [
            {
              "name": "isPrivate",
              "value": "true"
            }
          ]
        },
        {
          "name": "product_name",
          "title": "Product name",
          "mapping": {
            "expression": "productname",
            "type": "column",
            "dataType": "varchar"
          },
          "group": [
            "Product"
          ]
        }
      ],
      "metrics": [
        {
          "name": "product_unitsinstock",
          "title": "Product Units in stock",
          "mapping": {
            "expression": "unitsinstock",
            "type": "column",
            "dataType": "int2"
          },
          "group": [
            "Product"
          ]
        },
        {
          "name": "product_unitprice",
          "title": "Product Unit price",
          "mapping": {
            "expression": "unitprice",
            "type": "column",
            "dataType": "float4"
          },
          "group": [
            "Product"
          ]
        }
      ]
    }
  ],
  "sets": [],
  "functions": []
}